{
  "-MSiOHumu4ZolzCi_6R2" : {
    "name" : "Aderma"
  },
  "-MSiOIbQ02evRQFTk6SF" : {
    "name" : "Apple"
  },
  "-MSiOJ8nH4eDbYUn9hAU" : {
    "name" : "Armani"
  },
  "-MSiOKA717VjxFFCElU_" : {
    "name" : "Avene"
  },
  "-MSiOKQll9q90i8dUiQE" : {
    "name" : "Axe"
  },
  "-MSiOLCIJ5j_l8gLaHG-" : {
    "name" : "Azzaro"
  },
  "-MSiOM6cG3ysN3eOIEQx" : {
    "name" : "Bacardi"
  },
  "-MSiOMfNOb0M68DqAoQq" : {
    "name" : "BHV"
  },
  "-MSiONK5Qp8QFDbuE0UG" : {
    "name" : "Bioderma"
  },
  "-MSiOON91m1IUt5m2zql" : {
    "name" : "Biotherm"
  },
  "-MSiOOuoPxMSHp6JNfqp" : {
    "name" : "Bourjois"
  },
  "-MSiOQPR9ukc4oQj5bkt" : {
    "name" : "Breitling"
  },
  "-MSiORnLMbFpIpOyfqP5" : {
    "name" : "Bulgari"
  },
  "-MSiOSijVyBL0FCLLRWP" : {
    "name" : "Burberry"
  },
  "-MSiOTcmNYABQau_xifm" : {
    "name" : "Calvin klein"
  },
  "-MSiOU-1B4ZhqWReidNE" : {
    "name" : "Carita"
  },
  "-MSiOUT8e3AKUxj-FzB-" : {
    "name" : "Cartier"
  },
  "-MSiOV8WkfJYkrwDCQji" : {
    "name" : "Caudalle"
  },
  "-MSiOVW8tLY0arM_Uqn8" : {
    "name" : "Chanel"
  },
  "-MSiOWXBBaGCKsfQQxPF" : {
    "name" : "Chaumet"
  },
  "-MSiOXAI8T0ykFXpe7Fr" : {
    "name" : "Clarins"
  },
  "-MSiOY2gNKaBaRq6fmHY" : {
    "name" : "Clinique"
  },
  "-MSiOZKiomNBvoMqIPjF" : {
    "name" : "Coca Cola"
  },
  "-MSiO_7_JUcwfwqUmkB5" : {
    "name" : "Colgate"
  },
  "-MSiO_WSlrj5uWMOxqdn" : {
    "name" : "Danone"
  },
  "-MSiO_webJWXFGVfTR4F" : {
    "name" : "Decleor"
  },
  "-MSiObI0e2r_ya2lX7s6" : {
    "name" : "Dermalogica"
  },
  "-MSiOc6N3S5Tb3ZMSW7r" : {
    "name" : "Diadermine"
  },
  "-MSiOd6BYRQXrJTFjBha" : {
    "name" : "Diageo"
  },
  "-MSiOdTYdAxRcuUMF3Ge" : {
    "name" : "Diesel"
  },
  "-MSiOdihHhx2FC2RA_E8" : {
    "name" : "Dior"
  },
  "-MSiOfWnjZtJBrbrIOBP" : {
    "name" : "Dolce & Gabbana"
  },
  "-MSiOgNkO2ZRhM9FpzqO" : {
    "name" : "Dove"
  },
  "-MSiOhbUHl8cA8R0JIOv" : {
    "name" : "Ducray"
  },
  "-MSiOiAP98ffk_3yslvt" : {
    "name" : "Durex"
  },
  "-MSiOjlOZqXYmqJdWNTf" : {
    "name" : "Elie Saab"
  },
  "-MSiOkojs6csEsGttJTI" : {
    "name" : "Elisabeth Arden"
  },
  "-MSiOmjseoIW1edgr7l_" : {
    "name" : "Erborian"
  },
  "-MSiOnLy3aLjKKvj_tl3" : {
    "name" : "Estée Lauder"
  },
  "-MSiOnjHeEl3804fzQMU" : {
    "name" : "Eucerin"
  },
  "-MSiOogNkSBnq2R8MAkI" : {
    "name" : "Fabergé"
  },
  "-MSiOpTZFOmVzJRWXqAE" : {
    "name" : "Ferrero"
  },
  "-MSiOq3A84dKyB3mFsMt" : {
    "name" : "Filorga"
  },
  "-MSiOr0VzkD-sGm74VcK" : {
    "name" : "Fleury Michon"
  },
  "-MSiOssyVJwqEnPiCY1r" : {
    "name" : "Galeries Lafayette Haussmann"
  },
  "-MSiOtb1JtUbc66ZWmnP" : {
    "name" : "Garnier"
  },
  "-MSiOumVQijvdXNVgPJb" : {
    "name" : "Gemey Maybelline"
  },
  "-MSiOvQkCxeynyxlGAhk" : {
    "name" : "Gillette"
  },
  "-MSiOvs_E5yB5OWN-wrB" : {
    "name" : "Givenchy"
  },
  "-MSiOwqDDc3WC5EeJpMu" : {
    "name" : "Gucci"
  },
  "-MSiOxKy002BGHc-GFba" : {
    "name" : "Guerlain"
  },
  "-MSiOxuPxaPJXfJ2NxLt" : {
    "name" : "H&S"
  },
  "-MSiOyyJQye9i8xtxw_F" : {
    "name" : "Hansaplast"
  },
  "-MSiOzc6byDlLtBd9QPE" : {
    "name" : "Hermès"
  },
  "-MSiP-MVAWysqROnvjQI" : {
    "name" : "Hugo Boss"
  },
  "-MSiP0PPoBWQVS3zpuOg" : {
    "name" : "JP Gaultier"
  },
  "-MSiPgFKzPZktZgcn-b9" : {
    "name" : "Kenzo"
  },
  "-MSiPhwZJTN3SU8BIqdn" : {
    "name" : "Kerastase"
  },
  "-MSiPiKUADoVhy0dIJV0" : {
    "name" : "Kiko"
  },
  "-MSiPj-gyAo-gtqJMi2Y" : {
    "name" : "Klorane"
  },
  "-MSiPk3rZgPlYKfG8oEp" : {
    "name" : "La Roche Posay"
  },
  "-MSiPkruq5lfZ2Jaa64a" : {
    "name" : "Labello"
  },
  "-MSiPlynwbm2YiOMeG6C" : {
    "name" : "Lacoste"
  },
  "-MSiPmF6QRymc0_UYNDK" : {
    "name" : "Lancel"
  },
  "-MSiPn8lL4ERc9vWOVVq" : {
    "name" : "Lancôme"
  },
  "-MSiRwO5HzaW-2K73ct8" : {
    "name" : "Lays"
  },
  "-MSiRy2QwbP7eQC9lITY" : {
    "name" : "Le Bon Marché"
  },
  "-MSiRyXqN5KPY1n-nMPE" : {
    "name" : "Lindt"
  },
  "-MSiRzhgxPKwcF1Q6RlW" : {
    "name" : "Lolita Lempicka"
  },
  "-MSiS-NcmCfFuH8J_yyJ" : {
    "name" : "Longchamp"
  },
  "-MSiS0W7NAP14ONxeC80" : {
    "name" : "Louis Vuitton"
  },
  "-MSiS1CbQWL09K7cZjgk" : {
    "name" : "L'Occitane"
  },
  "-MSiS2SnfFd6pj_BjDyD" : {
    "name" : "Mauboussin"
  },
  "-MSiS3D686U43DEdK25k" : {
    "name" : "Monoprix"
  },
  "-MSiS3c9m2xUt29483co" : {
    "name" : "Monster"
  },
  "-MSiS6aOQNY00gMKJP72" : {
    "name" : "Mont Blanc"
  },
  "-MSiS7LZESLYiNiTv6BU" : {
    "name" : "Mugler"
  },
  "-MSiS83og66QzQ3U5sz2" : {
    "name" : "Mustella"
  },
  "-MSiS8qwyC-xpwQdlSnH" : {
    "name" : "Nestlé"
  },
  "-MSiSAZiGOnIR6aXmXQk" : {
    "name" : "Nina Ricci"
  },
  "-MSiSKrMz_31QLhdFyGK" : {
    "name" : "Nuxe"
  },
  "-MSiSM6E6_CrnSMyYWGc" : {
    "name" : "Orangina"
  },
  "-MSiSMYvrjGWkdVrY5bd" : {
    "name" : "Orlane"
  },
  "-MSiSNhtOMkhqS2kjdNh" : {
    "name" : "Paco Rabanne"
  },
  "-MSiSOI2v2ooY4OPEf-7" : {
    "name" : "Palmolive"
  },
  "-MSiSOfdbSzuLevum0Gl" : {
    "name" : "Payot"
  },
  "-MSiSPUE5gZJ_KGIpe9k" : {
    "name" : "Pepsi"
  },
  "-MSiSQllplDqGzr0FwMJ" : {
    "name" : "Pernod Ricard"
  },
  "-MSiSR_IEG66MocUeCIt" : {
    "name" : "Piquadro"
  },
  "-MSiSRtYlPdKkyNXcRc_" : {
    "name" : "Prada"
  },
  "-MSiSSdU05qCyE4qzLaG" : {
    "name" : "Ralph Lauren"
  },
  "-MSiSTMVVdEp89WQQ148" : {
    "name" : "Red Bull"
  },
  "-MSiSU4-QZ18Oqzvtieu" : {
    "name" : "Regenerate"
  },
  "-MSiSVKzvNCResBb660v" : {
    "name" : "Roc"
  },
  "-MSiSWF4ZT_5I5mUhsgt" : {
    "name" : "Rochas"
  },
  "-MSiSX45TGa2Z_nTf0kK" : {
    "name" : "Roger Gallet"
  },
  "-MSiSXPG6oXL5b88qvNV" : {
    "name" : "Rolex"
  },
  "-MSiSY-CgyHyn68F-vMg" : {
    "name" : "Samsonite"
  },
  "-MSiSYR6QuGQ4CLvKw-e" : {
    "name" : "Samsung"
  },
  "-MSiSZxayPs2cXPr1XIR" : {
    "name" : "Schwarzkopf"
  },
  "-MSiSbassSyfkX7tDnj-" : {
    "name" : "Sephora Champs Elysées"
  },
  "-MSiScsr4pyhEgCivTYG" : {
    "name" : "Sephora La Défense"
  },
  "-MSiSdzzFe8VWUkEVhCZ" : {
    "name" : "Shiseido"
  },
  "-MSiSenW6L4vod3msqVJ" : {
    "name" : "Sisley"
  },
  "-MSiSfv797NpFG0b7sZG" : {
    "name" : "Sodebo"
  },
  "-MSiSgtBRjbRFgb8qRPq" : {
    "name" : "Sony"
  },
  "-MSiSifod88PF2dhnL5-" : {
    "name" : "Swarovski"
  },
  "-MSiSwQZJGGK-bHVhcOS" : {
    "name" : "Tissot"
  },
  "-MSiSxT34H6bxzCagVw-" : {
    "name" : "Tom Ford"
  },
  "-MSiSyndNjfwD95_5qP9" : {
    "name" : "Tommy Hilfiger"
  },
  "-MSiSzJJsOjC4t3cmIem" : {
    "name" : "Uriage"
  },
  "-MSiSzqEIkOUMhVPigod" : {
    "name" : "Valentino"
  },
  "-MSiT-bK4cdxM3CZb9cW" : {
    "name" : "Versace"
  },
  "-MSiT00pMQYyBGU-KqBw" : {
    "name" : "Vichy"
  },
  "-MSiT0UhdxVfMZBov3RC" : {
    "name" : "Welleda"
  },
  "-MSiT19BJwygpBnUQebz" : {
    "name" : "YSL"
  },
  "-MSiT1sICWdC7uLrBnQx" : {
    "name" : "Yves Rocher"
  }
}
